EESchema Schematic File Version 2
LIBS:power
LIBS:device
LIBS:transistors
LIBS:conn
LIBS:linear
LIBS:regul
LIBS:74xx
LIBS:cmos4000
LIBS:adc-dac
LIBS:memory
LIBS:xilinx
LIBS:microcontrollers
LIBS:dsp
LIBS:microchip
LIBS:analog_switches
LIBS:motorola
LIBS:texas
LIBS:intel
LIBS:audio
LIBS:interface
LIBS:digital-audio
LIBS:philips
LIBS:display
LIBS:cypress
LIBS:siliconi
LIBS:opto
LIBS:atmel
LIBS:contrib
LIBS:valves
LIBS:my-displays
LIBS:my-microcontrollers
EELAYER 25 0
EELAYER END
$Descr A4 11693 8268
encoding utf-8
Sheet 1 1
Title ""
Date ""
Rev ""
Comp ""
Comment1 ""
Comment2 ""
Comment3 ""
Comment4 ""
$EndDescr
$Comp
L GND #PWR?
U 1 1 5ECE4D01
P 8200 4800
F 0 "#PWR?" H 8200 4550 50  0001 C CNN
F 1 "GND" H 8200 4650 50  0000 C CNN
F 2 "" H 8200 4800 50  0000 C CNN
F 3 "" H 8200 4800 50  0000 C CNN
	1    8200 4800
	1    0    0    -1  
$EndComp
Wire Wire Line
	8200 3400 8200 4800
$Comp
L VCC #PWR?
U 1 1 5ECE37A3
P 8200 3200
F 0 "#PWR?" H 8200 3050 50  0001 C CNN
F 1 "VCC" H 8200 3350 50  0000 C CNN
F 2 "" H 8200 3200 50  0000 C CNN
F 3 "" H 8200 3200 50  0000 C CNN
	1    8200 3200
	1    0    0    -1  
$EndComp
Wire Wire Line
	8200 3200 8200 3300
Wire Wire Line
	8200 3300 8100 3300
$Comp
L CONN_01X01 P?
U 1 1 5ECE437C
P 6550 5200
F 0 "P?" H 6550 5300 50  0000 C CNN
F 1 "BRIGHTNESS" V 6650 5200 50  0000 C CNN
F 2 "" H 6550 5200 50  0000 C CNN
F 3 "" H 6550 5200 50  0000 C CNN
	1    6550 5200
	0    1    1    0   
$EndComp
$Comp
L CONN_01X01 P?
U 1 1 5ECE43FD
P 6950 5200
F 0 "P?" H 6950 5300 50  0000 C CNN
F 1 "MODE" V 7050 5200 50  0000 C CNN
F 2 "" H 6950 5200 50  0000 C CNN
F 3 "" H 6950 5200 50  0000 C CNN
	1    6950 5200
	0    1    1    0   
$EndComp
Wire Wire Line
	6550 3700 6550 5000
Wire Wire Line
	6550 3700 6700 3700
$Comp
L ESP32-DEVKIT U?
U 1 1 5ECE4B7D
P 6700 3300
F 0 "U?" H 7375 3300 60  0000 C CNN
F 1 "ESP32-DEVKIT" H 7425 3450 60  0000 C CNN
F 2 "" H 6700 3300 60  0000 C CNN
F 3 "" H 6700 3300 60  0000 C CNN
	1    6700 3300
	1    0    0    -1  
$EndComp
Wire Wire Line
	8200 3400 8100 3400
Wire Wire Line
	8350 3900 8100 3900
Wire Wire Line
	8400 4000 8100 4000
Wire Wire Line
	6950 4900 6950 5000
Wire Wire Line
	6950 4900 6600 4900
Wire Wire Line
	6600 4900 6600 3500
Wire Wire Line
	6600 3500 6700 3500
$Comp
L MAX7219-QUAD-MATRIX U?
U 1 1 5ECF3865
P 2950 3250
F 0 "U?" H 3250 3325 60  0000 C CNN
F 1 "MAX7219-QUAD-MATRIX" H 4500 3325 60  0000 C CNN
F 2 "" H 3550 2850 60  0000 C CNN
F 3 "" H 3550 2850 60  0000 C CNN
	1    2950 3250
	1    0    0    -1  
$EndComp
$Comp
L MAX7219-QUAD-MATRIX U?
U 1 1 5ECF3D6A
P 2950 4100
F 0 "U?" H 3250 4175 60  0000 C CNN
F 1 "MAX7219-QUAD-MATRIX" H 4500 4175 60  0000 C CNN
F 2 "" H 3550 3700 60  0000 C CNN
F 3 "" H 3550 3700 60  0000 C CNN
	1    2950 4100
	1    0    0    -1  
$EndComp
$Comp
L CP C?
U 1 1 5ECF3DD1
P 6250 3050
F 0 "C?" H 6275 3150 50  0000 L CNN
F 1 "CP" H 6275 2950 50  0000 L CNN
F 2 "" H 6288 2900 50  0000 C CNN
F 3 "" H 6250 3050 50  0000 C CNN
	1    6250 3050
	1    0    0    -1  
$EndComp
$Comp
L GND #PWR?
U 1 1 5ECF3E02
P 6250 4800
F 0 "#PWR?" H 6250 4550 50  0001 C CNN
F 1 "GND" H 6250 4650 50  0000 C CNN
F 2 "" H 6250 4800 50  0000 C CNN
F 3 "" H 6250 4800 50  0000 C CNN
	1    6250 4800
	1    0    0    -1  
$EndComp
Wire Wire Line
	6250 3200 6250 3450
Wire Wire Line
	6250 3450 6250 4300
Wire Wire Line
	6250 4300 6250 4800
Wire Wire Line
	6000 3450 6250 3450
Connection ~ 6250 3450
Wire Wire Line
	6000 4300 6250 4300
Connection ~ 6250 4300
$Comp
L VCC #PWR?
U 1 1 5ECF3E86
P 6250 2700
F 0 "#PWR?" H 6250 2550 50  0001 C CNN
F 1 "VCC" H 6250 2850 50  0000 C CNN
F 2 "" H 6250 2700 50  0000 C CNN
F 3 "" H 6250 2700 50  0000 C CNN
	1    6250 2700
	1    0    0    -1  
$EndComp
Wire Wire Line
	6250 2700 6250 2800
Wire Wire Line
	6250 2800 6250 2900
Wire Wire Line
	6000 3350 6100 3350
Wire Wire Line
	6100 3350 6100 2800
Wire Wire Line
	6100 2800 6250 2800
Connection ~ 6250 2800
Wire Wire Line
	6000 3550 6150 3550
Wire Wire Line
	6150 3550 6150 4400
Wire Wire Line
	6150 4400 6150 4700
Wire Wire Line
	6150 4400 6000 4400
Wire Wire Line
	6000 4600 6100 4600
Wire Wire Line
	6100 4600 6100 4100
Wire Wire Line
	6100 4100 6100 3750
Wire Wire Line
	6100 3750 6000 3750
Wire Wire Line
	8350 2950 8350 3900
Wire Wire Line
	8400 2900 8400 4000
Wire Wire Line
	6000 3650 6450 3650
Wire Wire Line
	6450 3650 6450 2950
Wire Wire Line
	6450 2950 8350 2950
Wire Wire Line
	8400 2900 6400 2900
Wire Wire Line
	6400 2900 6400 4500
Wire Wire Line
	6400 4500 6000 4500
Wire Wire Line
	6150 4700 6700 4700
Connection ~ 6150 4400
Wire Wire Line
	6700 4100 6100 4100
Connection ~ 6100 4100
$EndSCHEMATC
