EESchema Schematic File Version 2
LIBS:power
LIBS:device
LIBS:transistors
LIBS:conn
LIBS:linear
LIBS:regul
LIBS:74xx
LIBS:cmos4000
LIBS:adc-dac
LIBS:memory
LIBS:xilinx
LIBS:microcontrollers
LIBS:dsp
LIBS:microchip
LIBS:analog_switches
LIBS:motorola
LIBS:texas
LIBS:intel
LIBS:audio
LIBS:interface
LIBS:digital-audio
LIBS:philips
LIBS:display
LIBS:cypress
LIBS:siliconi
LIBS:opto
LIBS:atmel
LIBS:contrib
LIBS:valves
LIBS:my-displays
LIBS:my-microcontrollers
EELAYER 25 0
EELAYER END
$Descr A3 16535 11693
encoding utf-8
Sheet 1 1
Title ""
Date ""
Rev ""
Comp ""
Comment1 ""
Comment2 ""
Comment3 ""
Comment4 ""
$EndDescr
$Comp
L MAX7219-MATRIX U?
U 1 1 5ECE3BD9
P 2550 2000
F 0 "U?" H 2475 2150 60  0000 C CNN
F 1 "MAX7219-MATRIX" V 2475 1675 60  0000 C CNN
F 2 "" H 2950 1600 60  0000 C CNN
F 3 "" H 2950 1600 60  0000 C CNN
	1    2550 2000
	1    0    0    -1  
$EndComp
$Comp
L MAX7219-MATRIX U?
U 1 1 5ECE45EE
P 3650 2000
F 0 "U?" H 3575 2150 60  0000 C CNN
F 1 "MAX7219-MATRIX" V 3575 1675 60  0000 C CNN
F 2 "" H 4050 1600 60  0000 C CNN
F 3 "" H 4050 1600 60  0000 C CNN
	1    3650 2000
	1    0    0    -1  
$EndComp
$Comp
L MAX7219-MATRIX U?
U 1 1 5ECE49AC
P 4750 2000
F 0 "U?" H 4675 2150 60  0000 C CNN
F 1 "MAX7219-MATRIX" V 4675 1675 60  0000 C CNN
F 2 "" H 5150 1600 60  0000 C CNN
F 3 "" H 5150 1600 60  0000 C CNN
	1    4750 2000
	1    0    0    -1  
$EndComp
$Comp
L MAX7219-MATRIX U?
U 1 1 5ECE49E1
P 5850 2000
F 0 "U?" H 5775 2150 60  0000 C CNN
F 1 "MAX7219-MATRIX" V 5775 1675 60  0000 C CNN
F 2 "" H 6250 1600 60  0000 C CNN
F 3 "" H 6250 1600 60  0000 C CNN
	1    5850 2000
	1    0    0    -1  
$EndComp
$Comp
L Arduino_UNO_R3 A?
U 1 1 5ECE4BC9
P 7250 2300
F 0 "A?" H 7050 3350 50  0000 R CNN
F 1 "Arduino_UNO_R3" H 7050 3250 50  0000 R CNN
F 2 "Module:Arduino_UNO_R3" H 7400 1250 50  0001 L CNN
F 3 "" H 7050 3350 50  0001 C CNN
	1    7250 2300
	1    0    0    -1  
$EndComp
$Comp
L GND #PWR?
U 1 1 5ECE4D01
P 7350 3500
F 0 "#PWR?" H 7350 3250 50  0001 C CNN
F 1 "GND" H 7350 3350 50  0000 C CNN
F 2 "" H 7350 3500 50  0000 C CNN
F 3 "" H 7350 3500 50  0000 C CNN
	1    7350 3500
	1    0    0    -1  
$EndComp
$Comp
L GND #PWR?
U 1 1 5ECE4DBB
P 5800 1500
F 0 "#PWR?" H 5800 1250 50  0001 C CNN
F 1 "GND" H 5800 1350 50  0000 C CNN
F 2 "" H 5800 1500 50  0000 C CNN
F 3 "" H 5800 1500 50  0000 C CNN
	1    5800 1500
	1    0    0    -1  
$EndComp
$Comp
L CP C?
U 1 1 5ECE54C8
P 5800 1150
F 0 "C?" H 5825 1250 50  0000 L CNN
F 1 "220µF" H 5550 1050 50  0000 L CNN
F 2 "" H 5838 1000 50  0000 C CNN
F 3 "" H 5800 1150 50  0000 C CNN
	1    5800 1150
	1    0    0    -1  
$EndComp
Wire Wire Line
	6750 3000 6550 3000
Wire Wire Line
	6550 3000 6550 1500
Wire Wire Line
	6550 1500 6400 1500
Wire Wire Line
	6400 1500 6400 1600
Wire Wire Line
	6300 1600 6300 1450
Wire Wire Line
	6300 1450 6650 1450
Wire Wire Line
	6650 1450 6650 2700
Wire Wire Line
	6650 2700 6750 2700
Wire Wire Line
	6750 2800 6600 2800
Wire Wire Line
	6600 2800 6600 1400
Wire Wire Line
	6600 1400 6200 1400
Wire Wire Line
	6200 1400 6200 1600
Wire Wire Line
	7350 3500 7350 3400
Wire Wire Line
	6000 800  6000 1600
Wire Wire Line
	5800 1300 5800 1500
Wire Wire Line
	5800 1400 6100 1400
Wire Wire Line
	6100 1400 6100 1600
Wire Wire Line
	4900 1600 4900 1300
Wire Wire Line
	4900 1300 5450 1300
Wire Wire Line
	5450 1300 5450 3200
Wire Wire Line
	5450 3200 6000 3200
Wire Wire Line
	6000 3200 6000 3100
Wire Wire Line
	6100 3100 6100 3250
Wire Wire Line
	6100 3250 5500 3250
Wire Wire Line
	5500 3250 5500 1350
Wire Wire Line
	5500 1350 5000 1350
Wire Wire Line
	5000 1350 5000 1600
Wire Wire Line
	5100 1600 5100 1400
Wire Wire Line
	5100 1400 5550 1400
Wire Wire Line
	5550 1400 5550 3300
Wire Wire Line
	5550 3300 6200 3300
Wire Wire Line
	6200 3300 6200 3100
Wire Wire Line
	6300 3100 6300 3350
Wire Wire Line
	6300 3350 5600 3350
Wire Wire Line
	5600 3350 5600 1450
Wire Wire Line
	5600 1450 5200 1450
Wire Wire Line
	5200 1450 5200 1600
Wire Wire Line
	5300 1600 5300 1500
Wire Wire Line
	5300 1500 5650 1500
Wire Wire Line
	5650 1500 5650 3400
Wire Wire Line
	5650 3400 6400 3400
Wire Wire Line
	6400 3400 6400 3100
Wire Wire Line
	3800 1600 3800 1300
Wire Wire Line
	3800 1300 4350 1300
Wire Wire Line
	4350 1300 4350 3200
Wire Wire Line
	4350 3200 4900 3200
Wire Wire Line
	4900 3200 4900 3100
Wire Wire Line
	3900 1600 3900 1350
Wire Wire Line
	3900 1350 4400 1350
Wire Wire Line
	4400 1350 4400 3250
Wire Wire Line
	4400 3250 5000 3250
Wire Wire Line
	5000 3250 5000 3100
Wire Wire Line
	4000 1600 4000 1400
Wire Wire Line
	4000 1400 4450 1400
Wire Wire Line
	4450 1400 4450 3300
Wire Wire Line
	4450 3300 5100 3300
Wire Wire Line
	5100 3300 5100 3100
Wire Wire Line
	5200 3100 5200 3350
Wire Wire Line
	5200 3350 4500 3350
Wire Wire Line
	4500 3350 4500 1450
Wire Wire Line
	4500 1450 4100 1450
Wire Wire Line
	4100 1450 4100 1600
Wire Wire Line
	4200 1600 4200 1500
Wire Wire Line
	4200 1500 4550 1500
Wire Wire Line
	4550 1500 4550 3400
Wire Wire Line
	4550 3400 5300 3400
Wire Wire Line
	5300 3400 5300 3100
Wire Wire Line
	3100 1600 3100 1500
Wire Wire Line
	3100 1500 3450 1500
Wire Wire Line
	3450 1500 3450 3400
Wire Wire Line
	3450 3400 4200 3400
Wire Wire Line
	4200 3400 4200 3100
Wire Wire Line
	4100 3100 4100 3350
Wire Wire Line
	4100 3350 3400 3350
Wire Wire Line
	3400 3350 3400 1450
Wire Wire Line
	3400 1450 3000 1450
Wire Wire Line
	3000 1450 3000 1600
Wire Wire Line
	2900 1600 2900 1400
Wire Wire Line
	2900 1400 3350 1400
Wire Wire Line
	3350 1400 3350 3300
Wire Wire Line
	3350 3300 4000 3300
Wire Wire Line
	4000 3300 4000 3100
Wire Wire Line
	3900 3100 3900 3250
Wire Wire Line
	3900 3250 3300 3250
Wire Wire Line
	3300 3250 3300 1350
Wire Wire Line
	3300 1350 2800 1350
Wire Wire Line
	2800 1350 2800 1600
Wire Wire Line
	2700 1600 2700 1300
Wire Wire Line
	2700 1300 3250 1300
Wire Wire Line
	3250 1300 3250 3200
Wire Wire Line
	3250 3200 3800 3200
Wire Wire Line
	3800 3200 3800 3100
Wire Wire Line
	7450 1200 7450 1300
$Comp
L VCC #PWR?
U 1 1 5ECE4D42
P 7450 1200
F 0 "#PWR?" H 7450 1050 50  0001 C CNN
F 1 "VCC" H 7450 1350 50  0000 C CNN
F 2 "" H 7450 1200 50  0000 C CNN
F 3 "" H 7450 1200 50  0000 C CNN
	1    7450 1200
	1    0    0    -1  
$EndComp
$Comp
L VCC #PWR?
U 1 1 5ECE4D77
P 6000 800
F 0 "#PWR?" H 6000 650 50  0001 C CNN
F 1 "VCC" H 6000 950 50  0000 C CNN
F 2 "" H 6000 800 50  0000 C CNN
F 3 "" H 6000 800 50  0000 C CNN
	1    6000 800 
	1    0    0    -1  
$EndComp
Connection ~ 5800 1400
Wire Wire Line
	6000 900  5800 900 
Wire Wire Line
	5800 900  5800 1000
Connection ~ 6000 900 
$Comp
L MAX7219-MATRIX U?
U 1 1 5ECE5F8A
P 2800 5500
F 0 "U?" H 2725 5650 60  0000 C CNN
F 1 "MAX7219-MATRIX" V 2725 5175 60  0000 C CNN
F 2 "" H 3200 5100 60  0000 C CNN
F 3 "" H 3200 5100 60  0000 C CNN
	1    2800 5500
	0    1    1    0   
$EndComp
$Comp
L MAX7219-MATRIX U?
U 1 1 5ECE5F90
P 4400 5500
F 0 "U?" H 4325 5650 60  0000 C CNN
F 1 "MAX7219-MATRIX" V 4325 5175 60  0000 C CNN
F 2 "" H 4800 5100 60  0000 C CNN
F 3 "" H 4800 5100 60  0000 C CNN
	1    4400 5500
	0    1    1    0   
$EndComp
$Comp
L MAX7219-MATRIX U?
U 1 1 5ECE5F96
P 6000 5500
F 0 "U?" H 5925 5650 60  0000 C CNN
F 1 "MAX7219-MATRIX" V 5925 5175 60  0000 C CNN
F 2 "" H 6400 5100 60  0000 C CNN
F 3 "" H 6400 5100 60  0000 C CNN
	1    6000 5500
	0    1    1    0   
$EndComp
$Comp
L MAX7219-MATRIX U?
U 1 1 5ECE5F9C
P 7600 5500
F 0 "U?" H 7525 5650 60  0000 C CNN
F 1 "MAX7219-MATRIX" V 7525 5175 60  0000 C CNN
F 2 "" H 8000 5100 60  0000 C CNN
F 3 "" H 8000 5100 60  0000 C CNN
	1    7600 5500
	0    1    1    0   
$EndComp
$Comp
L Arduino_UNO_R3 A?
U 1 1 5ECE5FA2
P 9050 5800
F 0 "A?" H 8850 6850 50  0000 R CNN
F 1 "Arduino_UNO_R3" H 8850 6750 50  0000 R CNN
F 2 "Module:Arduino_UNO_R3" H 9200 4750 50  0001 L CNN
F 3 "" H 8850 6850 50  0001 C CNN
	1    9050 5800
	1    0    0    -1  
$EndComp
$Comp
L GND #PWR?
U 1 1 5ECE5FA8
P 9150 7000
F 0 "#PWR?" H 9150 6750 50  0001 C CNN
F 1 "GND" H 9150 6850 50  0000 C CNN
F 2 "" H 9150 7000 50  0000 C CNN
F 3 "" H 9150 7000 50  0000 C CNN
	1    9150 7000
	1    0    0    -1  
$EndComp
$Comp
L GND #PWR?
U 1 1 5ECE5FAE
P 7900 5000
F 0 "#PWR?" H 7900 4750 50  0001 C CNN
F 1 "GND" H 7900 4850 50  0000 C CNN
F 2 "" H 7900 5000 50  0000 C CNN
F 3 "" H 7900 5000 50  0000 C CNN
	1    7900 5000
	1    0    0    -1  
$EndComp
$Comp
L CP C?
U 1 1 5ECE5FB4
P 7900 4650
F 0 "C?" H 7925 4750 50  0000 L CNN
F 1 "220µF" H 7650 4550 50  0000 L CNN
F 2 "" H 7938 4500 50  0000 C CNN
F 3 "" H 7900 4650 50  0000 C CNN
	1    7900 4650
	1    0    0    -1  
$EndComp
Wire Wire Line
	9150 7000 9150 6900
Wire Wire Line
	8100 4300 8100 5650
Wire Wire Line
	7900 4800 7900 5000
Wire Wire Line
	7900 4900 8200 4900
Wire Wire Line
	8200 4900 8200 5750
Wire Wire Line
	9250 4700 9250 4800
$Comp
L VCC #PWR?
U 1 1 5ECE6017
P 9250 4700
F 0 "#PWR?" H 9250 4550 50  0001 C CNN
F 1 "VCC" H 9250 4850 50  0000 C CNN
F 2 "" H 9250 4700 50  0000 C CNN
F 3 "" H 9250 4700 50  0000 C CNN
	1    9250 4700
	1    0    0    -1  
$EndComp
$Comp
L VCC #PWR?
U 1 1 5ECE601D
P 8100 4300
F 0 "#PWR?" H 8100 4150 50  0001 C CNN
F 1 "VCC" H 8100 4450 50  0000 C CNN
F 2 "" H 8100 4300 50  0000 C CNN
F 3 "" H 8100 4300 50  0000 C CNN
	1    8100 4300
	1    0    0    -1  
$EndComp
Connection ~ 7900 4900
Wire Wire Line
	8100 4400 7900 4400
Wire Wire Line
	7900 4400 7900 4500
Connection ~ 8100 4400
Wire Wire Line
	8100 5650 8000 5650
Wire Wire Line
	8200 5750 8000 5750
Wire Wire Line
	8000 5850 8300 5850
Wire Wire Line
	8300 5850 8300 6300
Wire Wire Line
	8300 6300 8550 6300
Wire Wire Line
	8550 6200 8250 6200
Wire Wire Line
	8250 6200 8250 5950
Wire Wire Line
	8250 5950 8000 5950
Wire Wire Line
	8000 6050 8200 6050
Wire Wire Line
	8200 6050 8200 6500
Wire Wire Line
	8200 6500 8550 6500
Wire Wire Line
	3200 5650 3300 5650
Wire Wire Line
	3300 5750 3200 5750
Wire Wire Line
	3200 5850 3300 5850
Wire Wire Line
	3300 5950 3200 5950
Wire Wire Line
	3200 6050 3300 6050
Wire Wire Line
	4800 5650 4900 5650
Wire Wire Line
	4900 5750 4800 5750
Wire Wire Line
	4800 5850 4900 5850
Wire Wire Line
	4950 5950 4800 5950
Wire Wire Line
	4800 6050 4900 6050
Wire Wire Line
	6500 5650 6400 5650
Wire Wire Line
	6400 5750 6500 5750
Wire Wire Line
	6500 5850 6400 5850
Wire Wire Line
	6400 5950 6500 5950
Wire Wire Line
	6500 6050 6400 6050
$EndSCHEMATC
